{
    "KPlugin": {
        "Description": "A panel for working with files inside Cantor",
        "Description[ca@valencia]": "Un plafó per a treballar amb fitxers dins del Cantor",
        "Description[ca]": "Un plafó per a treballar amb fitxers dins del Cantor",
        "Description[de]": "Eine Kontrollleiste zur Verwaltung von Dateien in Cantor",
        "Description[en_GB]": "A panel for working with files inside Cantor",
        "Description[es]": "Un panel para trabajar con archivos dentro de Cantor",
        "Description[fi]": "Paneeli tiedostojen käsittelemiseksi Cantorista",
        "Description[fr]": "Un panneau pour travailler avec les fichiers à l'intérieur de Cantor",
        "Description[it]": "Un pannello per lavorare con i file dentro Cantor",
        "Description[nl]": "Een paneel in Cantor voor het werken met bestanden",
        "Description[pl]": "Okno do pracy z plikami wewnątrz Cantora",
        "Description[pt]": "Um painel para lidar com ficheiros dentro do Cantor",
        "Description[pt_BR]": "Um painel para trabalhar com arquivos dentro do Cantor",
        "Description[ru]": "Панель Cantor для работы с файлами",
        "Description[sk]": "Panel na prácu zo súbormi vo vnútri Cantor",
        "Description[sl]": "Panel za delo z datotekami znotraj Cantorja",
        "Description[sv]": "En panel för att arbeta med filer inne i Cantor",
        "Description[uk]": "Панель для роботи з файлами у вікні Cantor",
        "Description[x-test]": "xxA panel for working with files inside Cantorxx",
        "Description[zh_CN]": "用于在 Cantor 内处理文件的面板",
        "Icon": "",
        "Id": "FileBrowserPanel",
        "License": "GPL",
        "Name": "File Browser",
        "Name[ca@valencia]": "Navegador de fitxers",
        "Name[ca]": "Navegador de fitxers",
        "Name[de]": "Dateibrowser",
        "Name[en_GB]": "File Browser",
        "Name[es]": "Navegador de archivos",
        "Name[fi]": "Tiedostoselain",
        "Name[fr]": "Navigateur de fichiers",
        "Name[ia]": "Cerca de file",
        "Name[it]": "Navigatore dei file",
        "Name[nl]": "Bestanden bladeren",
        "Name[pl]": "Przeglądarka plików",
        "Name[pt]": "Gestor de Ficheiros",
        "Name[pt_BR]": "Navegador de arquivos",
        "Name[ru]": "Диспетчер файлов",
        "Name[sk]": "Prehliadač súborov",
        "Name[sl]": "Brskalnik po datotekah",
        "Name[sv]": "Filbläddrare",
        "Name[uk]": "Навігація файлами",
        "Name[x-test]": "xxFile Browserxx",
        "Name[zh_CN]": "文件浏览器",
        "ServiceTypes": [
            "Cantor/PanelPlugin"
        ]
    },
    "RequiredExtensions": ""
}
