{
    "KPlugin": {
        "Description": "An Assistant for plotting with the Qalculate backend.",
        "Description[ca@valencia]": "Un assistent per a fer gràfiques amb el dorsal del Qalculate.",
        "Description[ca]": "Un assistent per a fer gràfiques amb el dorsal del Qalculate.",
        "Description[cs]": "Asistent pro grafy s podpůrnou vrstvou Qualculate.",
        "Description[de]": "Ein Assistent für das Plotten mit dem Qalculate-Modul.",
        "Description[el]": "Βοηθός σχεδίασης με το σύστημα υποστήριξης Qalculate",
        "Description[en_GB]": "An Assistant for plotting with the Qalculate backend.",
        "Description[es]": "Un asistente para mostrar gráficos con el motor de Qalculate.",
        "Description[et]": "Joonise loomise abiline Qalculate'i taustaprogrammiga",
        "Description[fi]": "Opastettu funktioiden piirtäminen käyttäen Qalculate-taustajärjestelmää.",
        "Description[fr]": "Un assistant pour le tracé avec le moteur « Qalculate »",
        "Description[gl]": "Un axudante para debuxar coa infraestrutura Qalculate.",
        "Description[it]": "Un assistente che crea grafici usando Qalculate.",
        "Description[nl]": "Een assistent voor het plotten met de Qalculate-backend.",
        "Description[nn]": "Eit hjelpevindauge for plotting med Qalculate-motoren.",
        "Description[pl]": "Pomocnik rysowania wykresów przy użyciu silnika Qalculate.",
        "Description[pt]": "Um assistente para desenhar gráficos com a infra-estrutura do Qalculate.",
        "Description[pt_BR]": "Um assistente para geração de gráficos com a infraestrutura Qalculate.",
        "Description[ru]": "Диалоговое окно, упрощающее построение графиков с использованием Qalculate.",
        "Description[sk]": "Asistent na kreslenie s backendom Qalculate.",
        "Description[sl]": "Pomočnik za izrisovanje grafov s Qalculate",
        "Description[sv]": "En guide för att rita med bakgrundsprogrammet Qalculate.",
        "Description[tr]": "Qalculate arka ucu ile bir grafik yardımcısı.",
        "Description[uk]": "Допоміжна програма для креслення за допомогою модуля Qalculate.",
        "Description[x-test]": "xxAn Assistant for plotting with the Qalculate backend.xx",
        "Description[zh_CN]": "用 Qalculate 后端画图的助手。",
        "Description[zh_TW]": "使用 Qalculate 後端介面的繪圖助手。",
        "Id": "Plot2d",
        "License": "GPL",
        "Name": "QalculatePlot",
        "Name[ca@valencia]": "Gràfic de Qalculate",
        "Name[ca]": "Gràfic de Qalculate",
        "Name[cs]": "QalculatePlot",
        "Name[de]": "QalculatePlot",
        "Name[el]": "QalculatePlot",
        "Name[en_GB]": "QalculatePlot",
        "Name[es]": "QalculatePlot",
        "Name[et]": "Qalculate'i joonis",
        "Name[fi]": "QalculatePlot",
        "Name[fr]": "Tracé « Qalculate »",
        "Name[gl]": "QalculatePlot",
        "Name[ia]": "QalculatePlot",
        "Name[it]": "Grafico con Qalculate",
        "Name[nl]": "QalculatePlot",
        "Name[nn]": "QalculatePlot",
        "Name[pl]": "QalculatePlot",
        "Name[pt]": "Gráfico Qalculate",
        "Name[pt_BR]": "Gráfico do Qalculate",
        "Name[ru]": "Графики Qalculate",
        "Name[sk]": "QalculatePlot",
        "Name[sl]": "Grafi Qalculate",
        "Name[sv]": "Rita med Qalculate",
        "Name[tr]": "QalculatePlot",
        "Name[uk]": "QalculatePlot",
        "Name[x-test]": "xxQalculatePlotxx",
        "Name[zh_CN]": "QalculatePlot",
        "Name[zh_TW]": "QalculatePlot",
        "ServiceTypes": [
            "Cantor/Assistant"
        ]
    },
    "RequiredExtensions": "QalculatePlotExtension"
}
